…
book.Words <- book.Words %>%
  filter(!word %in% kingJamesStopwords)
```

``` r
book.Words %>%
  group_by(book_long_title) %>%
  summarise(Total.Words = n()) %>%
  arrange(desc(Total.Words))
```

    ## # A tibble: 87 × 2
    ##    book_long_title                         Total.Words
    ##    <chr>                                         <int>
    ##  1 The Doctrine and Covenants                    32869
    ##  2 The Book of Alma                              23370
    ##  3 The Book of Psalms                            14161
    ##  4 The Book of the Prophet Jeremiah              13057
    ##  5 The First Book of Moses called Genesis        11742
    ##  6 The Book of the Prophet Isaiah                11654
    ##  7 The Book of the Prophet Ezekiel               11569
    ##  8 The Fourth Book of Moses called Numbers       10839
    ##  9 The Second Book of Moses called Exodus        10098
    ## 10 The Second Book of the Chronicles              8799
    ## # ℹ 77 more rows
…
